<svg xmlns="http://www.w3.org/2000/svg" id="Layer_1" viewBox="0 0 612 792">
  <path d="M338.3 452.8s6.5-36 1.7-49.2c-7.5-20.6-22.1-26.4-22.1-26.4s-6.3 6.1-6 11.8c0 0 14.8 25.9 18.5 42.9 3.7 17 9.7 11.6 9.7 11.6" class="st0"/>
  <path d="M289.3 553.7c-2.3-10.4-5.1-24.5-8-41.7-.8-4.5-1.3-8-2-12.7-.9-6-3.1-22.5-4-44.3-.5-11-.6-24.1 0-39 1.2-.3 2.4-.7 3.7-1 .1 16.4.8 30.7 1.7 42.3.7 9.3 1.4 18.7 3.3 31.3 2.8 19.6 6.5 34.4 8.2 40.7 2.3 8.7 4.5 15.9 6.3 21.2-3.2 1.1-6.2 2.1-9.2 3.2z" class="st2"/>
  <path d="M298.2 551c-3.3-18.7-7.3-49.9-8-82.9-.1-4.8-.2-11.5 0-20.4 0 0 1.2-45.3 13.7-96.2 4.4-17.9 9.7-33.9 10.3-35.9 1.2-3.6 2.2-6.5 2.9-8.4l3.9 1.5c-3.9 12-8.4 27.4-12.3 45.5-1.2 5.7-5.8 27.2-8.7 56.4-1.4 14.4-2.9 29.8-2.6 50.5.1 5 1.2 17.9 3.3 43.6 0 0 1.1 16.7 4.4 30.3.4 1.8.9 3.7.9 3.7 1.2 4.4 2.3 8 3.2 10.8-3.9.1-7.2 2.4-11 1.5z" class="st2"/>
  <path d="M298.3 534.1c13.3-24.8 22.4-47.1 28.8-65 2.5-7 8.7-25.2 14.4-49.4 3.7-15.7 6.2-29.6 7.9-41.1 1.3-10.8 2.7-21.6 4-32.4 1.2 0 2.3-.1 3.5-.1-.7 15.2-2.3 37.4-6.9 64.5-.4 2.3-1 5.9-1.9 10.5-3 15.9-8.7 44.8-22.9 78-5.3 12.4-12.9 32.4-24.3 50.4" class="st2"/>
  <path d="M298.3 385.5s-18.2-53.1-35.4-69.5C236 290.4 210 288.7 210 288.7s-4.5 11.2.3 19.2c1.6 1.1 3.1 2.2 4.7 3.4 4 2.9 7.9 5.9 11.9 8.9 5.3 4.1 10.5 8.3 15.7 12.5 5.5 4.6 10.9 9.3 16.1 14.3 2.4 2.3 4.7 4.6 6.9 6.9 1 1.1 2.1 2.2 3.1 3.4.5.6.9 1.1 1.4 1.7.6.7 1.3.7 2.3.7h.6c.2 0 .4.2.5.4v.1c0 .1-.1.1-.2.2l-.6.3c-.2.1-.4.3-.3.4 0 .1.1.1.1.1.2.1.5.1.7.1.2 0 .5.2.5.4 0 .5-.5.6-.4 1.1.1.5.9 1.1 1.3 1.4l2.4 2.4c1.3 1.2 2.6 2.4 4 3.4 1.6 1.2 3.5 2.3 5.5 2.6 1 .1 2.3.1 3.1-.8 0 0 7.4 16.1 7.4 18.9 0 2.9 1.5-5.9 1.5-5.9M276.6 435.2s-29.6-53-52.2-70.6c-35.4-27.6-65.8-32.3-65.8-32.3s-3.5 10.2 3.4 18.4c.6.7 1.8 1.1 2.5 1.6 1.8 1.1 3.5 2.3 5.6 2.7 1 .2 2 .2 2.9.7.7.3 1.2.9 1.8 1.4 1.2 1.2 2.5 2.4 3.7 3.6.6.6 1.2 1.2 2 1.6 2.2 1.3 5.1.7 7.6 1.1.3.1.7.1.9.4.2.3.2.7.2 1.1-.1 1.9 1 3.7 2.6 4.7 1.5 1.1 3.5 1.5 5.3 1.5.6 0 1.2 0 1.7.4.9.8 0 2.3.3 3.5.3 1.3 1.8 1.8 3.1 2.1 1.3.3 2.7.7 4 1 2.5.6 5.5 1.6 6.4 4 .5 1.4.2 3.2 1.3 4.3 1.6 1.8 4.9.4 6.9 1.7 1 .6 1.5 1.8 2 2.9.3.8.6 1.8 1.1 2.4.7.7 1.7 1.3 2.5 1.9 1.7 1.3 3.3 2.7 5 4.1 3 2.5 6 5.1 8.9 7.8 19.7 18.6 23.9 13.9 23.9 13.9s11.1 16.2 11.5 19 .8-5.4.8-5.4" class="st4"/>
  <path d="M279 415s-7.1-41.1-17.6-59.6c-16.4-29-36.6-40-36.6-40-.4-.2-2.7 4.6-2.9 4.9-.7 1.7-1.1 3.4-1.1 5.2 0 1 0 2 .2 3 .2 1.2.6 1.6 1.5 2.4l.3.3c.2.2.4.4.5.6.2.4.1 1 .1 1.5-.1 1.2.2 2.5.9 3.6 1.1 1.9 3.3 3.2 3.9 5.3.3 1.3 0 2.9.6 4.1.3.7.9 1.2 1.6 1.4.3.1.6.2.8.3.2.1.3.3.5.5 1.5 1.9 3.1 3.8 4.3 5.9 1.1 1.9 2 4.2 2.1 6.4.1 1.1.7 1.9 1.2 2.8.6 1.1 1.3 2.1 1.9 3.2 2.6 4.2 5.2 8.2 8.1 12.2 3 4.1 6.1 8.1 9.7 11.6 15.2 15.2 16.3 25.3 16.3 25.3" class="st5"/>
  <path d="M335.6 458.3s31.6-50.2 54.9-68.1c36.3-28 66.8-35 66.8-35 .3-.1.6 4.3.6 4.5 0 3.6-1.1 7.1-3.1 10.1-.8 1.1-1.7 2.5-2.9 3.1-1.2.6-2.7.7-4 1.1-2.8.9-4.6 3.5-6.1 6-.4.6-.8 1.3-1.4 1.8-.6.5-1.3.7-2 .9-2 .5-4.1.5-5.9 1.4-.7.3-1.3.8-1.8 1.2-1.3 1-2.7 2-4 3-1.2.9-2.4 1.8-3.4 3-.7.8-1.3 1.7-2 2.4-1.2 1.2-2.8 2-4.4 2.8-1.9.9-3.9 1.6-5.6 2.8l-6 4.2c-4 2.9-7.9 5.8-11.7 8.7-7 5.4-13.9 11-20.3 17.2-.1.1-.2.2-.3.2-12.7 12.5-19.6 9.3-19.6 9.3s-19.8 27-20.8 31.2 3-11.8 3-11.8zM277.9 441s16.8-48.6 33-67.3c25.3-29.2 50-38.7 50-38.8.5-.2 1.7 5.4 1.8 5.8.2 1.9.2 3.9-.3 5.8-.3 1.3-1.2 4.8-2.8 5.1-.7.2-1.4 0-2.1.4-.7.3-1 1.1-1.3 1.8-.3.8-.6 1.6-1.2 2.2s-1.3 1.2-2.1 1.2c-.3 0-.6 0-.8.1-.3.2-.2.7-.3 1.1-.3.9-1.7.6-2.4 1.2-.5.4-.5 1-.7 1.6-.2.8-.7 1.6-1.4 1.9-.3.1-.7.2-1.1.3-2.2.4-4.2 1.9-5.1 4-.5 1.2-.8 2.6-1.8 3.5-.9.8-2.3.9-3.5 1-.4 0-.7.1-1 .3-.3.2-.5.4-.6.7-.9 1.2-1.6 2.4-2.2 3.7-.6 1.4-.8 3-1.5 4.3-.6 1.2-2.1 2.3-3.1 3.3-1.1 1.2-2.3 2.4-3.4 3.6-4.4 4.7-8.6 9.5-12.8 14.5-2.5 3-4.9 6-7.2 9.2-17.4 23.7-18.5 15.5-18.5 15.5s-7.5 18.6-7.2 19.3-.4-5.3-.4-5.3z" class="st4"/>
  <path d="M348.6 396.6s23.3-41.8 39.8-52.1c25.8-16.2 46.9-12.1 47-12.1.4.1.3 4.5.3 4.9-.1 3.2-.6 6.6-2.2 9.4-.3.6-1.2 2.4-2 2.3-1.4-.1-2.8.1-4.1.6-.5.2-1 .4-1.4.8-.4.3-.7.8-1 1.2-.6.7-1.1 1.5-1.7 2.2-.4.6-.8 1.1-1.4 1.6-1 .9-2.4 1.3-3.7 1.7-1.2.3-2.3.7-3.5 1-.8.2-1.5.4-2.3.6-.8.2-1.7.2-2.5.5-1.1.3-1.9.9-2.8 1.5-.9.6-1.9 1.1-2.9 1.6-2.1 1.1-4.1 2.2-6.2 3.4-4.1 2.3-8.2 4.7-12.1 7.2-3.8 2.4-7.4 4.9-10.9 7.7-18.5 15.1-18.2 10.2-18.2 10.2s-8.2 10.8-8.3 15.3c0 4.2.1-9.5.1-9.5z" class="st0"/>
  <path d="M351 380.6s6.5-37.6 16.2-53.1c15.1-24.2 32.1-33.9 32.1-33.9.4-.2 2.2 4.6 2.2 4.9.4 1.7.4 3.5 0 5.2-.2.8-.4 1.7-1 2.3-.6.6-1.4.9-2 1.4-1.1 1-1.6 2.5-1.7 4-.2 1.5-.1 3-.5 4.4-.4 1.5-1.3 2.8-2.1 4.1-.8 1.2-1.6 2.5-2.7 3.4-1.2 1-2.7 1.5-4.2 2.2-2.4 1.2-4.5 3-6.2 5.1-.9 1.1-1.6 2.4-2.3 3.6-2.1 3.6-4.2 7.2-6 11-.9 1.9-1.8 3.9-2.5 5.9-.6 1.8-2.4 3.4-3.7 4.9-5.8 6.8-7.3 6.3-7.3 6.3s-8.4 23.5-7.2 24.2l-1.1-5.9z" class="st4"/>
  <path d="M305.3 358.4s-10.2-45.3-23.1-62.3c-20.1-26.6-41.6-34.8-41.6-34.8s-4.8 7.3-1.5 14.7c-.1-.2-.3-.3-.4-.4.9 1 2.9.7 3.5 1.8.3.6 0 1.3.2 1.9.3 1.3 2.3 1.4 3.2 2.5.5.6.5 1.6.1 2.3.9-.2 1.9.2 2.5.9.6.7.8 1.8.5 2.6.2-.6 3.8 3.1 4.1 3.4 1.3 1.5 2.6 2.9 3.9 4.4 2.8 3.2 5.5 6.4 8.2 9.6 3.2 3.9 6.4 7.8 9.5 11.9l4.5 6c.7 1 1.1 1.8 2.2 2.3 1.1.5 2.2.6 3.3 1.2.4.2.8.5.9.9-.5.1-.9.1-1.4.2-.2 0-.4.1-.6.2-.2.1-.2.4 0 .6.1.1.3.1.4.1.7 0 1.3.5 1.8 1 .1.1.2.2.2.3 0 .2-.3.3-.6.2-.2 0-.6-.1-.7.1.5.4 1.1.7 1.6 1.1.3.2.6.5.5.8-.1.2-.4.3-.6.4-1.2.7 8.8 13.4 10.8 15.1.7.6 2.6 2.3 3.6 1.4 0 0 .2-.1.1-.2 0 0 6.6 17.8 5 20.8v-11z" class="st0"/>
  <path d="M305.6 364.5s4.6-2.6 6.3-7.5c4-11.6 12-32.5 20.2-42.4 18.1-22 36.2-29.4 36.2-29.4s.5.9.5 1c.4.8.7 1.7.8 2.6.3 1.2.4 2.5.2 3.7-.1.7-.2 1.4-.4 2.1-.1.4-.2.7-.4 1.1-.1.3-.3.9-.5 1.1-.1.1-.4.1-.6.1-.2 0-.4.1-.6.1-.6.1-1.2.2-1.7.6 0 0-.1.1 0 .1H367c0 .2 0 .5-.1.7-.1.1-.2.2-.3.2-1 .5-2.2.6-3.3 1-.1 0-.2.1-.1.2.3 0 .7 0 1 .1.2.1.7.3.7.5 0 .1-.3.3-.4.4-.3.3-.5.6-.8.8-.6.6-1.2 1.2-1.8 1.9-.9.9-1.8 1.9-2.7 2.8-.4.4-.8 1.1-1.3 1.4-.4.3-1.2.2-1.7.3-.1 0-.1 0-.2.1 0 .1.2.2.3.3.1.1.1.3-.1.4-.1.1-.3.1-.4.1-.5 0-1 .1-1.5.1.3.1.5.2.7.4.2.2.2.6 0 .8-.2.2-.4.2-.7.2-.6 0-1.2 0-1.8-.2-.3-.1-.6-.2-.8-.2-.1.3 0 .6.3.8s.5.3.7.5.4.5.3.8l-.3.3c-.6.4-1.2.8-1.7 1.1-.1.1-.2.1-.2.2 0 .2.1.3.2.4.2.3-.1.7-.3.9-.3.2-.6.2-1 .4-.3.1-.6.3-.7.7-.1.3.1.6-.1.9-.1.1-.2.1-.2.2-.6.4-.4 1.1-.8 1.5-1.8 2-3.5 3.9-5.3 5.9l-5.1 6c-1.6 1.9-3.2 3.9-4.7 5.9-1.4 1.8-2.8 3.6-4.1 5.5-.2.3-.4.6-.6.8-12.3 17.9-12.7 17.1-12.7 17.1s-8.4 5.5-9.4 10.8l.1-6.3" class="st0"/>
  <path d="M312.3 318.4s0-.1.1-.2c1.1-2.8 11.7-30.3 21.5-40.3 16.2-16.4 31.7-20.2 31.7-20.2.6-.1 1.1 5.2 1.1 5.6-.1 1.2-.3 3.7-1.5 4.4-1.2.7-3-.2-4.2.9 1 .2 1.9.5 2.8 1-.2.3-.7.5-1.1.6-1.3.3-2.6.7-3.9 1.2-.1 0-.2.1-.2.2-.1.2.3.3.5.4.2.2.1.6-.2.7-.3.1-.6.1-.9.2-.4.1-.8.3-1.1.5-.1.1-.1.2-.1.2l.1.1c.2.1.3.5.2.7-.2.8-1.3 1.5-2 1.9-1 .6-2.2.4-3.3.9-1.5.7-2.3 2.2-3 3.7-.4.9-1 1.8-1.9 2.3-1.1.5-2.5 0-3.6.5-.9.4-1.4 1.3-1.8 2.2-.4.8-.8 1.7-1.2 2.5-.2.4-.5.9-.9 1.1-.3.1-.7.1-1 .2-.8.2-1.4.7-1.8 1.4-.4.7-.7 1.4-1 2.1-1.6 3.2-4.4 5.8-6.6 8.6-11.2 13.7-12.1 10.9-12.1 10.9s-1.9 3.3-2.1 6c0 0-3.2 5.9-3.2 6-.1.1.8-6.4.7-6.3M333.5 474.6s24.9-26.7 39-31.4c22.1-7.3 37-.4 37-.4.4.2-1 4.7-1.1 5.1-.5 1.5-1.2 2.9-2.1 4.2-.5.6-1 1.2-1.6 1.7-1 .8-1.6-.1-2.5-.7-1.2-.8-2.5-1.4-3.9-1.7.4.6.8 1.2 1.2 1.7.2.3.4.6.3.9-.2.5-1 .4-1.5.1-.9-.5-1.8-.9-2.7-1.4-1.2.3 2 2.4.9 2.5-1.1-.3-2.8-.4-3.9-.7.4.5.6 1.1-.1 1.1-.4 0-1.3.1-1.6-.1-1.2-.7-1.1-1.3-2.5-1.7-.3.4-1.1.9-.8 1.3.4.6.2 1.6-.4 2-.6.5-1.4.5-2.2.4s-1.5-.4-2.2-.7c-.4-.1-.8-.2-1.2-.1-1.1.2-1.6 1.6-2.6 1.9-1.2.4-2.4-.6-3.6-.4-.9.2-1.5.9-2.1 1.5-.6.6-1.4 1.3-2.3 1.2-.4-.1-.7-.3-1.1-.4-1-.3-2 .2-2.8.7-.9.5-1.8 1.1-2.6 1.8s-1.5.9-2.5 1.4c-2 .8-4 1.8-5.9 2.8-8.3 4.7-10.6-.6-10.6-.6s-14.6 13.2-16 16.1c-1.4 3.1 4-8.1 4-8.1z" class="st4"/>
  <path d="M307.2 346s-1.7-42.1-9.5-61.7c-12.1-30.7-28-46.6-28-46.6-3.3 2.8-4 7.6-3.3 11.6l-.3-.6c.4 1.7 2.8 2.8 4.1 3.7 0 .2-.4.2-.6.3-.2.1-.2.5-.1.8.2.2.4.4.6.5.7.5 1.2 1.4 1.3 2.2-.3 0-.6 0-1 .1.6 0 2.4 4.3 2.6 4.9-1.5.4-.2 1.8.2 2.6s.7 1.6 1.1 2.4c.4.9.8 1 1.7 1.4.3.1.6.3.7.5.2.2.2.6 0 .8-.1.1-.3.2-.3.4s.1.3.2.4c.6.6 1.1 1.3 1.7 1.9-.4-.1-.7.5-.6.9.1.4.5.7.8.9.3.3.6.6.6 1.1 0 .2-.2.4-.3.6-.1.4 0 .9.2 1.2.4.8 1 1.4 1.8 1.8-.4.2-.5.8-.3 1.2s.6.8.9 1.1c.6.7 1 1.7 1.3 2.6 1 2.6 2 5.2 3.4 7.6.5.8 1 1.7 1.3 2.6.5 1.7.4 3.3 1.1 5 .7 1.8 1.5 3.6 2.2 5.4 1.4 3.6 2.7 7.3 3.9 11 7.6 23.8 10 21 10 21s2.7 17.6 1 19.5l1.6-9.1zM293.5 480.3s17-56.3 34-72.6c26.4-25.4 52.4-24.7 52.4-24.7.3 0 .9 3.1 1 3.3.7 2.7 1.1 5.4 1.2 8.2 0 2.7-.1 6.9-1.9 9.1-2.1 2.5-6.6 3.1-9.6 3.7-3.3.7-6.9 1.6-9.1 4.3-1.5 1.9-2.2 4.5-4.3 5.8-1.8 1.1-4.3.9-5.8 2.4-.5.5-.8 1.1-1.1 1.7-1.6 3-3.6 6.2-5.9 8.7-2.6 2.9-6 5.2-8.8 7.9-5.4 5.1-10.6 10.6-14.8 16.7-11.8 16.9-17.3 13.2-17.3 13.2s-7 12.7-6.5 19.9c.4 7.2-3.5-7.6-3.5-7.6z" class="st5"/>
</svg>
